\relax 
\bibstyle{biblatex}
\bibdata{spectrometer_jhartwic-blx,mybib}
\citation{biblatex-control}
\abx@aux@refcontext{nty/global//global/global}
\citation{raylib}
\abx@aux@cite{0}{raylib}
\abx@aux@segm{0}{0}{raylib}
\@writefile{toc}{\contentsline {section}{\numberline {0.1}Introduciton}{1}{}\protected@file@percent }
\@writefile{toc}{\contentsline {section}{\numberline {0.2}Theory}{1}{}\protected@file@percent }
\@writefile{toc}{\contentsline {subsection}{\numberline {0.2.1}Planar Mirrors}{1}{}\protected@file@percent }
\@writefile{toc}{\contentsline {subsection}{\numberline {0.2.2}Spherical Concave Mirrors}{1}{}\protected@file@percent }
\citation{DGH}
\abx@aux@cite{0}{DGH}
\abx@aux@segm{0}{0}{DGH}
\@writefile{toc}{\contentsline {subsection}{\numberline {0.2.3}Diffraction Gratings}{2}{}\protected@file@percent }
\newlabel{eq:diffraction_equation}{{1}{2}{}{}{}}
\@writefile{toc}{\contentsline {subsection}{\numberline {0.2.4}Slit Sources}{2}{}\protected@file@percent }
\@writefile{toc}{\contentsline {subsection}{\numberline {0.2.5}Czerny-Turner Spectrometer}{2}{}\protected@file@percent }
\@writefile{toc}{\contentsline {section}{\numberline {0.3}Experimental Methods}{2}{}\protected@file@percent }
\@writefile{toc}{\contentsline {section}{\numberline {0.4}Analysis Methods}{2}{}\protected@file@percent }
\@writefile{toc}{\contentsline {section}{\numberline {0.5}Discussion}{2}{}\protected@file@percent }
\@writefile{toc}{\contentsline {section}{\numberline {0.6}Conclusion}{2}{}\protected@file@percent }
\@writefile{toc}{\contentsline {section}{\numberline {0.7}Acknowledgements}{2}{}\protected@file@percent }
\@writefile{toc}{\contentsline {section}{\numberline {0.8}References}{3}{}\protected@file@percent }
\@writefile{toc}{\contentsline {section}{\numberline {0.9}Data}{3}{}\protected@file@percent }
\abx@aux@read@bbl@mdfivesum{883F1A1B178F5FF6292B1264405811C1}
\abx@aux@defaultrefcontext{0}{DGH}{nty/global//global/global}
\abx@aux@defaultrefcontext{0}{raylib}{nty/global//global/global}
\abx@aux@defaultlabelprefix{0}{DGH}{}
\abx@aux@defaultlabelprefix{0}{raylib}{}
\gdef \@abspage@last{4}
