\relax 
\providecommand\hyper@newdestlabel[2]{}
\providecommand\HyField@AuxAddToFields[1]{}
\providecommand\HyField@AuxAddToCoFields[2]{}
\@writefile{toc}{\contentsline {section}{\numberline {1}Introduction}{1}{section.1}\protected@file@percent }
\@writefile{toc}{\contentsline {section}{\numberline {2}Milestones}{1}{section.2}\protected@file@percent }
\@writefile{toc}{\contentsline {subsection}{\numberline {2.1}Programming the Teensy}{1}{subsection.2.1}\protected@file@percent }
\@writefile{lof}{\contentsline {figure}{\numberline {1}{\ignorespaces This figure describes how the Czerny-Turner spectrometer works, with light (A) coming in from the slit (B) to bounce off of the first concave mirror (C) onto the diffraction grating (D), which then reflects the light onto the second concave mirror (E), which is then directed towards the CCD array (F), from which we read the signal. \href  {https://commons.wikimedia.org/wiki/File:Czerny-Turner_Monochromator.svg}{Figure (Melish, 2014)} }}{2}{figure.1}\protected@file@percent }
\newlabel{fig:ct-spectrometer}{{1}{2}{This figure describes how the Czerny-Turner spectrometer works, with light (A) coming in from the slit (B) to bounce off of the first concave mirror (C) onto the diffraction grating (D), which then reflects the light onto the second concave mirror (E), which is then directed towards the CCD array (F), from which we read the signal. \href {https://commons.wikimedia.org/wiki/File:Czerny-Turner_Monochromator.svg}{Figure (Melish, 2014)}}{figure.1}{}}
\@writefile{toc}{\contentsline {subsection}{\numberline {2.2}How to construct sensor control circuit}{2}{subsection.2.2}\protected@file@percent }
\@writefile{lof}{\contentsline {figure}{\numberline {2}{\ignorespaces This is the timing chart taken from the CCD array datasheet; it shows the square waves that need to be provided in order for the CCD array to communicate properly with the Teensy microcontroller. \href  {https://toshiba.semicon-storage.com/info/TCD1304DG_Web_Datasheet_en_20190108.pdf?did=13709&prodName=TCD1304DG}{Datasheet (Toshiba, 2018)} }}{3}{figure.2}\protected@file@percent }
\newlabel{fig:timing_chart}{{2}{3}{This is the timing chart taken from the CCD array datasheet; it shows the square waves that need to be provided in order for the CCD array to communicate properly with the Teensy microcontroller. \href {https://toshiba.semicon-storage.com/info/TCD1304DG_Web_Datasheet_en_20190108.pdf?did=13709&prodName=TCD1304DG}{Datasheet (Toshiba, 2018)}}{figure.2}{}}
\@writefile{toc}{\contentsline {subsection}{\numberline {2.3}Simulation of the Czerny-Turner spectrometer w/ the Monte-Carlo method}{3}{subsection.2.3}\protected@file@percent }
\@writefile{lof}{\contentsline {figure}{\numberline {3}{\ignorespaces The wave forms used in order to control the CCD array.}}{4}{figure.3}\protected@file@percent }
\newlabel{fig:teensy_trace}{{3}{4}{The wave forms used in order to control the CCD array}{figure.3}{}}
\@writefile{toc}{\contentsline {subsection}{\numberline {2.4}Learned how to set up optics}{4}{subsection.2.4}\protected@file@percent }
\@writefile{lof}{\contentsline {figure}{\numberline {4}{\ignorespaces The circuit that we would use to control the CCD array.}}{5}{figure.4}\protected@file@percent }
\newlabel{fig:ccd_array_control_circuit}{{4}{5}{The circuit that we would use to control the CCD array}{figure.4}{}}
\@writefile{lof}{\contentsline {figure}{\numberline {5}{\ignorespaces The Collimating Mirror, collimates the light, effectively moves the light source infinitely far away from the spectrometer while maintaining a sufficient amount of light in order to analyze.}}{6}{figure.5}\protected@file@percent }
\newlabel{fig:collimating_mirror_screenshot}{{5}{6}{The Collimating Mirror, collimates the light, effectively moves the light source infinitely far away from the spectrometer while maintaining a sufficient amount of light in order to analyze}{figure.5}{}}
\@writefile{lof}{\contentsline {figure}{\numberline {6}{\ignorespaces The Diffraction Grating, diffracts different wavelengths of light to different angles, this separates the different wavelengths so that we can analyze each separate wavelength.}}{7}{figure.6}\protected@file@percent }
\newlabel{fig:diffraction_grating_screenshot}{{6}{7}{The Diffraction Grating, diffracts different wavelengths of light to different angles, this separates the different wavelengths so that we can analyze each separate wavelength}{figure.6}{}}
\@writefile{lof}{\contentsline {figure}{\numberline {7}{\ignorespaces The Focusing Mirror, focuses the incoming diffracted light. This focuses each wavelength at a different location along the screen.}}{8}{figure.7}\protected@file@percent }
\newlabel{fig:focusing_mirror_screenshot}{{7}{8}{The Focusing Mirror, focuses the incoming diffracted light. This focuses each wavelength at a different location along the screen}{figure.7}{}}
\@writefile{lof}{\contentsline {figure}{\numberline {8}{\ignorespaces The Screen, this is a stand in for the CCD array that would read the amount of light being focused onto the different pixels on the array, allowing us to analyze the amounts of the different wavelengths of light are present in the light source.}}{9}{figure.8}\protected@file@percent }
\newlabel{fig:screen_screenshot}{{8}{9}{The Screen, this is a stand in for the CCD array that would read the amount of light being focused onto the different pixels on the array, allowing us to analyze the amounts of the different wavelengths of light are present in the light source}{figure.8}{}}
\@writefile{lof}{\contentsline {figure}{\numberline {9}{\ignorespaces Putting together all of the previous optical components we can see the Czerny-Turner spectrometer that we are trying to build.}}{10}{figure.9}\protected@file@percent }
\newlabel{fig:spectrometer_screenshot}{{9}{10}{Putting together all of the previous optical components we can see the Czerny-Turner spectrometer that we are trying to build}{figure.9}{}}
\@writefile{toc}{\contentsline {section}{\numberline {3}Reflection}{11}{section.3}\protected@file@percent }
\@writefile{toc}{\contentsline {subsection}{\numberline {3.1}The MI-AAPT Presentation}{11}{subsection.3.1}\protected@file@percent }
\@writefile{toc}{\contentsline {section}{\numberline {4}Budget Expenditure tallies}{11}{section.4}\protected@file@percent }
\@writefile{toc}{\contentsline {section}{\numberline {5}References}{11}{section.5}\protected@file@percent }
\@writefile{lof}{\contentsline {figure}{\numberline {10}{\ignorespaces The Czerny-Turner Spectrometer that we where able to create.}}{12}{figure.10}\protected@file@percent }
\newlabel{fig:spectrometer}{{10}{12}{The Czerny-Turner Spectrometer that we where able to create}{figure.10}{}}
\@writefile{lof}{\contentsline {figure}{\numberline {11}{\ignorespaces The Spectrum of light emitted from a LED flashlight given by the spectrometer that we created. }}{13}{figure.11}\protected@file@percent }
\newlabel{fig:spectrum}{{11}{13}{The Spectrum of light emitted from a LED flashlight given by the spectrometer that we created}{figure.11}{}}
\gdef \@abspage@last{14}
